<svg width="24" height="24" viewBox="0 0 24 24" fill="none" xmlns="http://www.w3.org/2000/svg">
  <mask id="mask0_33_2006" style="mask-type:alpha" maskUnits="userSpaceOnUse" x="0" y="0" width="24" height="24">
  <rect width="24" height="24" fill="#D9D9D9"/>
  </mask>
  <g mask="url(#mask0_33_2006)">
  <path d="M12 15C12.8333 15 13.5417 14.7083 14.125 14.125C14.7083 13.5417 15 12.8333 15 12C15 11.1667 14.7083 10.4583 14.125 9.875C13.5417 9.29167 12.8333 9 12 9C11.1667 9 10.4583 9.29167 9.875 9.875C9.29167 10.4583 9 11.1667 9 12C9 12.8333 9.29167 13.5417 9.875 14.125C10.4583 14.7083 11.1667 15 12 15ZM12 17C10.6167 17 9.4375 16.5125 8.4625 15.5375C7.4875 14.5625 7 13.3833 7 12C7 10.6167 7.4875 9.4375 8.4625 8.4625C9.4375 7.4875 10.6167 7 12 7C13.3833 7 14.5625 7.4875 15.5375 8.4625C16.5125 9.4375 17 10.6167 17 12C17 13.3833 16.5125 14.5625 15.5375 15.5375C14.5625 16.5125 13.3833 17 12 17ZM2 13C1.71667 13 1.47917 12.9042 1.2875 12.7125C1.09583 12.5208 1 12.2833 1 12C1 11.7167 1.09583 11.4792 1.2875 11.2875C1.47917 11.0958 1.71667 11 2 11H4C4.28333 11 4.52083 11.0958 4.7125 11.2875C4.90417 11.4792 5 11.7167 5 12C5 12.2833 4.90417 12.5208 4.7125 12.7125C4.52083 12.9042 4.28333 13 4 13H2ZM20 13C19.7167 13 19.4792 12.9042 19.2875 12.7125C19.0958 12.5208 19 12.2833 19 12C19 11.7167 19.0958 11.4792 19.2875 11.2875C19.4792 11.0958 19.7167 11 20 11H22C22.2833 11 22.5208 11.0958 22.7125 11.2875C22.9042 11.4792 23 11.7167 23 12C23 12.2833 22.9042 12.5208 22.7125 12.7125C22.5208 12.9042 22.2833 13 22 13H20ZM12 5C11.7167 5 11.4792 4.90417 11.2875 4.7125C11.0958 4.52083 11 4.28333 11 4V2C11 1.71667 11.0958 1.47917 11.2875 1.2875C11.4792 1.09583 11.7167 1 12 1C12.2833 1 12.5208 1.09583 12.7125 1.2875C12.9042 1.47917 13 1.71667 13 2V4C13 4.28333 12.9042 4.52083 12.7125 4.7125C12.5208 4.90417 12.2833 5 12 5ZM12 23C11.7167 23 11.4792 22.9042 11.2875 22.7125C11.0958 22.5208 11 22.2833 11 22V20C11 19.7167 11.0958 19.4792 11.2875 19.2875C11.4792 19.0958 11.7167 19 12 19C12.2833 19 12.5208 19.0958 12.7125 19.2875C12.9042 19.4792 13 19.7167 13 20V22C13 22.2833 12.9042 22.5208 12.7125 22.7125C12.5208 22.9042 12.2833 23 12 23ZM5.65 7.05L4.575 6C4.375 5.81667 4.27917 5.58333 4.2875 5.3C4.29583 5.01667 4.39167 4.775 4.575 4.575C4.775 4.375 5.01667 4.275 5.3 4.275C5.58333 4.275 5.81667 4.375 6 4.575L7.05 5.65C7.23333 5.85 7.325 6.08333 7.325 6.35C7.325 6.61667 7.23333 6.85 7.05 7.05C6.86667 7.25 6.6375 7.34583 6.3625 7.3375C6.0875 7.32917 5.85 7.23333 5.65 7.05ZM18 19.425L16.95 18.35C16.7667 18.15 16.675 17.9125 16.675 17.6375C16.675 17.3625 16.7667 17.1333 16.95 16.95C17.1333 16.75 17.3625 16.6542 17.6375 16.6625C17.9125 16.6708 18.15 16.7667 18.35 16.95L19.425 18C19.625 18.1833 19.7208 18.4167 19.7125 18.7C19.7042 18.9833 19.6083 19.225 19.425 19.425C19.225 19.625 18.9833 19.725 18.7 19.725C18.4167 19.725 18.1833 19.625 18 19.425ZM16.95 7.05C16.75 6.86667 16.6542 6.6375 16.6625 6.3625C16.6708 6.0875 16.7667 5.85 16.95 5.65L18 4.575C18.1833 4.375 18.4167 4.27917 18.7 4.2875C18.9833 4.29583 19.225 4.39167 19.425 4.575C19.625 4.775 19.725 5.01667 19.725 5.3C19.725 5.58333 19.625 5.81667 19.425 6L18.35 7.05C18.15 7.23333 17.9167 7.325 17.65 7.325C17.3833 7.325 17.15 7.23333 16.95 7.05ZM4.575 19.425C4.375 19.225 4.275 18.9833 4.275 18.7C4.275 18.4167 4.375 18.1833 4.575 18L5.65 16.95C5.85 16.7667 6.0875 16.675 6.3625 16.675C6.6375 16.675 6.86667 16.7667 7.05 16.95C7.25 17.1333 7.34583 17.3625 7.3375 17.6375C7.32917 17.9125 7.23333 18.15 7.05 18.35L6 19.425C5.81667 19.625 5.58333 19.7208 5.3 19.7125C5.01667 19.7042 4.775 19.6083 4.575 19.425Z" fill="#1C1B1F"/>
  </g>
  </svg>
  