{
  "general": {
    "locale": "fr-CH"
  },
  "languages": {
    "translations": {
      "fr": ["i18n/fr.json", "https://map.cartoriviera.ch/static/dummy/fr.json"]
    },
    "defaultLanguage": "fr"
  },
  "themes": {
    "url": "https://map.cartoriviera.ch/themes?background=background&interface=desktop",
    "defaultTheme": "cadastre"
  },
  "basemaps": {
    "defaultBasemap": "plan_cadastral",
    "OSM": true,
    "SwissTopoVectorTiles": true
  },
  "treeview": {
    "useLegendIcons": true
  },
  "search": {
    "url": "https://map.cartoriviera.ch/search?limit=90&partitionlimit=15&interface=desktop&query=###SEARCHTERM###",
    "objectPreview": true,
    "layerPreview": true
  },
  "print": {
    "url": "https://map.cartoriviera.ch/printproxy/",
    "defaultLayout": "1) A4 paysage"
  },
  "lidar": {
    "url": "https://map.cartoriviera.ch/lidar_server/pytree"
  },
  "share": {
    "service": "lstu",
    "createUrl": "https://lstu.fr/a"
  },
  "projections": {
    "EPSG:3857": "W-M",
    "EPSG:4326": "WGS84",
    "EPSG:2056": "MN95"
  },
  "map": {
    "srid": "EPSG:2056",
    "startZoom": "1",
    "startPosition": "2556000,1145000",
    "maxExtent": "2535000,1130000,2580000,1160000",
    "scales": [200000, 75000, 40000, 20000, 10000, 7500, 5000, 3500, 2000, 1000, 500, 200, 100]
  },
  "map3d": {
    "terrainUrl": "https://terrain100.geo.admin.ch/1.0.0/ch.swisstopo.terrain.3d/",
    "terrainImagery": {
      "url": "https://wmts20.geo.admin.ch/1.0.0/ch.swisstopo.swissimage-product/default/current/4326/{z}/{x}/{y}.jpeg"
    },
    "tilesetsUrls": [
      "https://uzuflycesium.s3.amazonaws.com/Blonay/Cesium/Scene/BlonaymCesium.json",
      "https://uzuflycesium.s3.amazonaws.com/Chardonne/BTI/Cesium/Scene/ChardonnemCesium.json",
      "https://uzuflycesium.s3.amazonaws.com/Corseaux/BTI/Cesium/Scene/ChardonnemCesium.json",
      "https://uzuflycesium.s3.amazonaws.com/CorsierSurVevey/BTI/Cesium/Scene/CorsiermCesium.json",
      "https://uzuflycesium.s3.amazonaws.com/Jongny/BTI/Cesium/Scene/JongnymCesium.json",
      "https://uzuflycesium.s3.amazonaws.com/Vevey/Mesh/Vevey_cesium_lac_sans_lat/Scene/Vevey_cesium_lac_sans_lat.json",
      "https://uzuflycesium.s3.amazonaws.com/Vevey/Mesh/Vevey_cesium_sans_lac/Scene/Vevey_cesium_sans_lac.json"
    ]
  },
  "bookmarks": {
    "service": "localStorage",
    "get": "",
    "post": ""
  },
  "gmfauth": {
    "url": "https://map.cartoriviera.ch",
    "loginRequired": false
  }
}
