{
  "general": {
    "locale": "fr-CH"
  },
  "languages": {
    "translations": {
      "fr": ["i18n/fr.json", "https://map.cartolacote.ch/static/dummy/fr.json"]
    },
    "defaultLanguage": "fr"
  },
  "themes": {
    "url": "https://map.cartolacote.ch/themes?background=background&interface=desktop",
    "defaultTheme": "plan_ville"
  },
  "basemaps": {
    "defaultBasemap": "plan_ville",
    "OSM": true,
    "SwissTopoVectorTiles": true
  },
  "treeview": {
    "useLegendIcons": true
  },
  "search": {
    "url": "https://map.cartolacote.ch/search?limit=90&partitionlimit=15&interface=desktop&query=###SEARCHTERM###",
    "objectPreview": true,
    "layerPreview": true
  },
  "print": {
    "url": "https://map.cartolacote.ch/printproxy/",
    "defaultLayout": "01 A4 portrait"
  },
  "lidar": {
    "url": "https://map.cartolacote.ch/pytree"
  },
  "share": {
    "service": "lstu",
    "createUrl": "https://lstu.fr/a"
  },
  "projections": {
    "EPSG:3857": "W-M",
    "EPSG:4326": "WGS84",
    "EPSG:2056": "MN95"
  },
  "map": {
    "srid": "EPSG:2056",
    "startZoom": "0",
    "startPosition": "2492000,1140000",
    "maxExtent": "2450900,1095300,2602800,1197700",
    "scales": [200000, 80000, 40000, 20000, 10000, 8000, 4000, 2000, 1000, 500, 200, 100]
  },
  "map3d": {
    "terrainUrl": "https://terrain100.geo.admin.ch/1.0.0/ch.swisstopo.terrain.3d/",
    "tilesetsUrls": ["https://vectortiles100.geo.admin.ch/3d-tiles/ch.swisstopo.swisstlm3d.3d/20201020/tileset.json"]
  },
  "bookmarks": {
    "service": "localStorage",
    "get": "",
    "post": ""
  }
}
