{
  "general": {
    "locale": "fr-CH"
  },
  "languages": {
    "translations": {
      "fr": ["i18n/fr.json", "Mock/fr.json"]
    },
    "defaultLanguage": "fr"
  },
  "themes": {
    "url": "Mock/themes.json",
    "defaultTheme": "plan_de_ville"
  },
  "basemaps": {
    "defaultBasemap": "Plan-couleur",
    "OSM": true,
    "SwissTopoVectorTiles": true
  },
  "treeview": {
    "useLegendIcons": true
  },
  "search": {
    "url": "https://mapnv.ch/search?limit=90&partitionlimit=15&interface=desktop&query=###SEARCHTERM###",
    "objectPreview": true,
    "layerPreview": true
  },
  "lidar": {
    "url": "https://pytree.mapnv.ch"
  },
  "print": {
    "url": "https://mapnv.ch/printproxy/",
    "defaultLayout": "1 A4 Paysage"
  },
  "share": {
    "service": "lstu",
    "createUrl": "https://lstu.fr/a"
  },
  "projections": {
    "EPSG:3857": "W-M",
    "EPSG:4326": "WGS84",
    "EPSG:2056": "MN95"
  },
  "map": {
    "srid": "EPSG:2056",
    "startZoom": "1",
    "startPosition": "2534000,1181000",
    "maxExtent": "2491250,1116751,2585455,1206650",
    "scales": [300000, 100000, 50000, 25000, 10000, 5000, 2500, 2000, 1000, 500, 250, 200, 100, 50]
  },
  "map3d": {
    "terrainUrl": "https://terrain100.geo.admin.ch/1.0.0/ch.swisstopo.terrain.3d/",
    "tilesetsUrls": ["https://vectortiles100.geo.admin.ch/3d-tiles/ch.swisstopo.swisstlm3d.3d/20201020/tileset.json"]
  },
  "bookmarks": {
    "service": "localStorage",
    "get": "",
    "post": ""
  }
}
